<svg width="945" height="646" viewBox="0 0 945 646" fill="none" xmlns="http://www.w3.org/2000/svg">
<path d="M840.673 102.948H483.796V254.655H840.673V102.948Z" fill="#E9F9F1"/>
<path d="M839.008 104.615V252.988H485.459V104.615H839.008ZM842.336 101.281H482.131V256.322H842.336V101.281Z" fill="#F2F2F9"/>
<path d="M699.394 249.773H627.519C633.529 240.405 647.356 233.847 663.456 233.847C679.556 233.847 693.389 240.405 699.394 249.773Z" fill="#2766CC"/>
<path d="M597.13 234.914C621.261 234.914 640.823 215.32 640.823 191.15C640.823 166.981 621.261 147.387 597.13 147.387C572.999 147.387 553.437 166.981 553.437 191.15C553.437 215.32 572.999 234.914 597.13 234.914Z" fill="#2766CC"/>
<path d="M557.867 151.212C565.895 151.212 572.403 144.693 572.403 136.652C572.403 128.612 565.895 122.093 557.867 122.093C549.839 122.093 543.331 128.612 543.331 136.652C543.331 144.693 549.839 151.212 557.867 151.212Z" fill="#D26868"/>
<path d="M555.038 181.073L519.695 213.868C519.695 213.868 468.161 232.656 458.984 238.738C449.807 244.82 428.762 252.792 428.762 254.955C428.762 257.117 448.461 252.254 448.057 252.93C447.653 253.607 430.107 274.014 432.266 274.014C434.425 274.014 454.262 262.389 454.262 262.389C454.262 262.389 439.555 277.258 441.985 278.61C444.415 279.963 463.306 264.689 463.306 264.689C463.306 264.689 452.912 277.424 455.408 278.691C457.905 279.958 477.067 258.065 477.067 258.065C477.067 258.065 526.323 243.872 538.197 238.871C550.07 233.871 570.402 213.958 570.402 213.958" fill="#D26868"/>
<path d="M557.735 176.12L535.339 198.456C535.339 198.456 557.554 233.133 558.728 232.656C559.903 232.18 579.736 217.102 579.736 217.102" fill="#2766CC"/>
<path d="M474.038 261.684H437.853L455.945 229.908L474.038 261.684Z" fill="#F2B836"/>
<path d="M918.415 71.0909H558.21L482.131 101.281H842.336L918.415 71.0909Z" fill="#2766CC"/>
<path d="M601.989 154.807L627.594 115.316C627.594 115.316 573.312 80.1256 572.584 75.2058C571.857 70.2861 573.459 64.2186 575.361 63.1422C577.263 62.0659 597.234 55.9984 610.695 71.0576H603.891C603.891 71.0576 663.732 90.727 667.683 111.163C671.634 131.599 627.741 189.998 627.741 189.998" fill="#D26868"/>
<path d="M596.444 152.469C596.444 152.469 612.587 130.242 613.467 130.828C614.347 131.414 649.785 160.465 649.785 160.465L626.814 192.708" fill="#2766CC"/>
<path d="M535.339 149.421L552.438 141.506" stroke="#090928" stroke-width="3" stroke-miterlimit="10"/>
<path d="M559.523 168.124C559.523 168.124 552.51 178.125 553.075 192.613" stroke="#090928" stroke-width="3" stroke-miterlimit="10"/>
<path d="M560.492 164.618L577.909 188.226L576.008 151.788C576.008 151.788 565.095 157.084 560.492 164.618Z" fill="#D26868"/>
<path d="M554.424 135.229C555.575 135.229 556.507 134.295 556.507 133.143C556.507 131.991 555.575 131.057 554.424 131.057C553.274 131.057 552.342 131.991 552.342 133.143C552.342 134.295 553.274 135.229 554.424 135.229Z" fill="#090928"/>
<path d="M547.131 137.786C548.281 137.786 549.213 136.852 549.213 135.7C549.213 134.548 548.281 133.614 547.131 133.614C545.98 133.614 545.048 134.548 545.048 135.7C545.048 136.852 545.98 137.786 547.131 137.786Z" fill="#090928"/>
<path d="M545.529 144.701L536.086 149.078" stroke="#D26868" stroke-width="3" stroke-miterlimit="10"/>
<path d="M768.107 425.922H411.23V577.629H768.107V425.922Z" fill="#E9F9F1"/>
<path d="M766.437 427.589V575.962H412.894V427.589H766.437ZM769.766 424.255H409.565V579.296H769.766V424.255Z" fill="#F2F2F9"/>
<path d="M643.304 495.169C667.435 495.169 686.998 475.576 686.998 451.406C686.998 427.236 667.435 407.643 643.304 407.643C619.173 407.643 599.611 427.236 599.611 451.406C599.611 475.576 619.173 495.169 643.304 495.169Z" fill="#F2B836"/>
<path d="M655.481 394.165C663.782 394.165 670.512 387.425 670.512 379.11C670.512 370.796 663.782 364.056 655.481 364.056C647.18 364.056 640.451 370.796 640.451 379.11C640.451 387.425 647.18 394.165 655.481 394.165Z" fill="#D26868"/>
<path d="M608.636 450.144C606.491 450.339 551.619 441.528 542.899 429.727C535.015 419.063 519.904 368.742 519.904 368.742C519.904 368.742 497.199 349.959 499.396 348.296C501.345 346.82 513.561 351.059 513.561 351.059C513.561 351.059 499.296 344.563 500.784 341.629C502.273 338.695 534.63 350.911 534.63 350.911C534.63 350.911 535.02 341.043 538.286 340.262C541.553 339.481 544.677 353.683 544.577 358.274C544.477 362.865 570.805 405.166 570.805 405.166L628.036 418.163" fill="#D26868"/>
<path d="M522.539 356.431C531.911 356.431 539.509 348.821 539.509 339.434C539.509 330.046 531.911 322.436 522.539 322.436C513.166 322.436 505.568 330.046 505.568 339.434C505.568 348.821 513.166 356.431 522.539 356.431Z" fill="#21BF73"/>
<path d="M632.055 413.62L593.721 406.471L584.648 449.158L616.397 457.764" fill="#F2B836"/>
<path d="M845.85 454.735H485.644L409.565 579.295H769.771L845.85 454.735Z" fill="#F2B836"/>
<path d="M724.119 454.735H739.92C739.92 454.735 730.267 472.762 732.901 473.933C735.536 475.105 753.528 454.735 753.528 454.735C753.528 454.735 736.263 477.448 739.92 478.767C743.576 480.086 763.918 457.374 763.918 457.374C763.918 457.374 750.894 471.442 754.261 473.495C757.627 475.548 775.62 456.788 774.013 452.978C772.405 449.168 763.77 445.062 747.97 445.062C732.169 445.062 724.119 454.735 724.119 454.735Z" fill="#D26868"/>
<path d="M631.398 363.394L647.256 374.724" stroke="#090928" stroke-width="3" stroke-miterlimit="10"/>
<path d="M637.655 407.548L632.682 433.194L661.62 411.572C661.62 411.572 651.991 406.228 637.655 407.548Z" fill="#D26868"/>
<path d="M643.323 406.119C643.323 406.119 621.659 404.947 608.374 423.617" stroke="#090928" stroke-width="3" stroke-miterlimit="10"/>
<path d="M656.157 375.534C657.346 375.534 658.311 374.568 658.311 373.376C658.311 372.185 657.346 371.219 656.157 371.219C654.967 371.219 654.003 372.185 654.003 373.376C654.003 374.568 654.967 375.534 656.157 375.534Z" fill="#090928"/>
<path d="M649.015 370.138C650.205 370.138 651.169 369.172 651.169 367.98C651.169 366.789 650.205 365.823 649.015 365.823C647.826 365.823 646.861 366.789 646.861 367.98C646.861 369.172 647.826 370.138 649.015 370.138Z" fill="#090928"/>
<path d="M642.129 371.166L633.898 364.794" stroke="#D26868" stroke-width="3" stroke-miterlimit="10"/>
<path d="M592.154 453.992H710.661" stroke="#090928" stroke-width="3" stroke-miterlimit="10"/>
<path d="M285.514 116.907H134.051V474.357H285.514V116.907Z" fill="#E9F9F1"/>
<path d="M283.85 118.574V472.69H135.71V118.574H283.85ZM287.179 115.24H132.382V476.024H287.179V115.24Z" fill="#F2F2F9"/>
<path d="M259.453 329.727C283.584 329.727 303.146 310.134 303.146 285.964C303.146 261.794 283.584 242.201 259.453 242.201C235.322 242.201 215.76 261.794 215.76 285.964C215.76 310.134 235.322 329.727 259.453 329.727Z" fill="#21BF73"/>
<path d="M292.095 241.429C300.289 241.429 306.931 234.776 306.931 226.57C306.931 218.363 300.289 211.711 292.095 211.711C283.902 211.711 277.26 218.363 277.26 226.57C277.26 234.776 283.902 241.429 292.095 241.429Z" fill="#D26868"/>
<path d="M413.104 309.61H382.938V339.824H413.104V309.61Z" fill="#2766CC"/>
<path d="M297.078 278.749L331.633 320.321L366.548 310.405C366.548 310.405 376.5 301.223 380.009 301.614C383.518 302.004 396.59 309.624 396.59 309.624H382.938V324.474C382.938 324.474 395.615 317.049 398.154 318.807C400.693 320.564 389.762 335.599 382.753 338.724C375.744 341.848 336.326 358.141 323.259 355.393C310.193 352.645 270.693 305.9 270.693 305.9" fill="#D26868"/>
<path d="M266.742 307.886L292.623 335.471L326.431 305.943L290.175 265.166" fill="#21BF73"/>
<path d="M83.9863 552.225V191.446L132.387 115.24V476.024L83.9863 552.225Z" fill="#21BF73"/>
<path d="M221.414 292.903L162.505 285.621C162.505 285.621 110.42 319.626 103.397 320.997C96.3736 322.369 78.0338 313.801 78.4237 299.756C78.4237 299.756 75.6944 289.136 83.8871 280.401V291.874H97.1534C97.1534 291.874 133.048 250.788 147.679 247.254C162.31 243.72 234.29 255.045 234.29 255.045" fill="#D26868"/>
<path d="M224.009 298.375L191.628 294.037L203.135 245.52L245.468 251.512" fill="#21BF73"/>
<path d="M296.28 501.451L249.663 439.966L231.413 473.623L296.28 501.451Z" fill="#D26868"/>
<path d="M281.045 471.723L234.808 455.311L255.292 399.623L220.472 406.952L202.631 468.971H147.346C150.474 448.553 161.382 380.953 181.263 363.284C204.671 342.472 296.565 344.71 308.257 366.508C320.839 389.955 281.045 471.723 281.045 471.723Z" fill="#21BF73"/>
<path d="M299.922 226.57H319.146" stroke="#090928" stroke-width="3" stroke-miterlimit="10"/>
<path d="M210.082 297.67L231.327 300.356" stroke="#090928" stroke-width="3" stroke-miterlimit="10"/>
<path d="M296.104 262.642C296.104 262.642 306.526 275.72 301.405 296.718" stroke="#090928" stroke-width="3" stroke-miterlimit="10"/>
<path d="M286.884 454.735L243.657 439.966" stroke="#090928" stroke-width="3" stroke-miterlimit="10"/>
<path d="M303.517 224.093C304.691 224.093 305.643 223.14 305.643 221.964C305.643 220.789 304.691 219.836 303.517 219.836C302.343 219.836 301.392 220.789 301.392 221.964C301.392 223.14 302.343 224.093 303.517 224.093Z" fill="#090928"/>
<path d="M294.729 225.17C295.903 225.17 296.854 224.216 296.854 223.041C296.854 221.865 295.903 220.912 294.729 220.912C293.555 220.912 292.604 221.865 292.604 223.041C292.604 224.216 293.555 225.17 294.729 225.17Z" fill="#090928"/>
<path d="M317.458 226.57H307.054" stroke="#D26868" stroke-width="3" stroke-miterlimit="10"/>
<path d="M268.363 243.11C268.363 243.11 267.964 263.832 278.691 269.433C289.418 275.034 295.395 261.365 295.395 261.365C295.395 261.365 288.129 247.487 268.363 243.11Z" fill="#D26868"/>
</svg>
