<svg width="33" height="32" viewBox="0 0 33 32" fill="none" xmlns="http://www.w3.org/2000/svg">
<path d="M16.5007 8.00004V12L21.834 6.66671L16.5007 1.33337V5.33337C10.6073 5.33337 5.83398 10.1067 5.83398 16C5.83398 18.0934 6.44732 20.04 7.48732 21.68L9.43398 19.7334C8.83398 18.6267 8.50065 17.3467 8.50065 16C8.50065 11.5867 12.0873 8.00004 16.5007 8.00004ZM25.514 10.32L23.5673 12.2667C24.154 13.3867 24.5007 14.6534 24.5007 16C24.5007 20.4134 20.914 24 16.5007 24V20L11.1673 25.3334L16.5007 30.6667V26.6667C22.394 26.6667 27.1673 21.8934 27.1673 16C27.1673 13.9067 26.554 11.96 25.514 10.32Z" fill="#21BF73"/>
</svg>
